19.2206 43.5167
19.2398 43.4689
19.3112 43.4310
19.3277 43.4190
19.4595 43.3891
19.4870 43.3751
19.5529 43.3052
19.5694 43.2512
19.6106 43.2292
19.6243 43.2292
19.6655 43.1872
19.6902 43.1831
19.7177 43.1831
19.7314 43.1711
19.7452 43.1872
19.7617 43.1852
19.7864 43.1571
19.7754 43.1451
19.8221 43.1090
19.8386 43.1130
19.8441 43.1010
19.8550 43.0930
19.8907 43.1050
19.9594 43.1110
19.9731 43.1210
19.9841 43.1150
19.9951 43.0829
20.1407 43.0107
20.1654 42.9986
20.3220 42.9544
20.3302 42.9383
20.3714 42.9303
20.3796 42.9021
20.3577 42.8438
20.3192 42.8297
20.3055 42.8176
20.3055 42.7954
20.2560 42.7571
20.0967 42.7853
20.0555 42.7773
20.0446 42.7591
20.0528 42.7188
20.0748 42.7168
20.1105 42.6905
20.1324 42.6764
20.0775 42.6198
20.0885 42.5956
20.0940 42.5854
20.0830 42.5591

